EDA with Birds - Sarah Campbell
…
## Warning: Values in `ID` are not uniquely identified; output will contain list-cols.
## * Use `values_fn = list(ID = list)` to suppress this warning.
## * Use `values_fn = list(ID = length)` to identify where the duplicates arise
## * Use `values_fn = list(ID = summary_fun)` to summarise duplicates

## # A tibble: 127,280 x 30
##    Admin_Unit_Code Sub_Unit_Code Site_Name Plot_Name Location_Type  Year Date 
##    <chr>           <chr>         <chr>     <chr>     <chr>         <int> <chr>
##  1 ANTI            <NA>          ANTI 2    ANTI-0207 Forest         2008 5/28…
##  2 ANTI            <NA>          ANTI 2    ANTI-0207 Forest         2008 5/28…
##  3 ANTI            <NA>          ANTI 2    ANTI-0207 Forest         2008 5/28…
##  4 ANTI            <NA>          ANTI 2    ANTI-0207 Forest         2008 5/28…
##  5 ANTI            <NA>          ANTI 2    ANTI-0207 Forest         2008 5/28…
##  6 ANTI            <NA>          ANTI 2    ANTI-0207 Forest         2008 5/28…
##  7 ANTI            <NA>          ANTI 2    ANTI-0207 Forest         2008 5/28…
##  8 ANTI            <NA>          ANTI 2    ANTI-0207 Forest         2008 5/28…
##  9 ANTI            <NA>          ANTI 2    ANTI-0207 Forest         2008 5/28…
## 10 ANTI            <NA>          ANTI 2    ANTI-0207 Forest         2008 5/28…
## # … with 127,270 more rows, and 23 more variables: Start_Time <chr>,
## #   End_Time <chr>, Observer <chr>, Visit <int>, Interval_Length <chr>,
## #   ID_Method <chr>, Distance <fct>, Flyover_Observed <lgl>, Sex <chr>,
## #   Common_Name <chr>, Scientific_Name <chr>, AOU_Code <chr>,
## #   PIF_Watchlist_Status <lgl>, Regional_Stewardship_Status <lgl>,
## #   Temperature <dbl>, Humidity <dbl>, Sky <chr>, Wind <chr>,
## #   Disturbance <chr>, Initial_Three_Min_Cnt <lgl>, Previously_Obs <lgl>,
## #   AcceptedTSN <list<int>>, NPSTaxonCode <list<int>>
…
Again, I’m not seeing any repeats. I expect the same from Site_Name, Location_Type, and Year, so to double-check:

birds %>% count(Site_Name)

## # A tibble: 71 x 2
##    Site_Name     n
##    <chr>     <int>
##  1 ANTI 1     1342
##  2 ANTI 2     1459
##  3 CATO 1     1332
##  4 CATO 2     1188
##  5 CATO 3     1099
##  6 CATO 4     1413
##  7 CATO 5     1416
##  8 CATO 6      946
##  9 CATO 7     1430
## 10 CATO 8      917
## # … with 61 more rows
…
2b. Wrangling

Now that I can work with the data, I can put it to some use. For example, it might be interesting to see which observer was most successful at finding birds. One might measure this by finding the highest ratio of birds spotted to days worked. In this case, Kimberly Serno seems to be the champion bird-finder. But one could also say a successful bird-watcher is able to reliably identify species. Looking at the ratio of species NAs (in other words, unidentified species) to total observations for each observer, it seems Kimberley Serno also has a 100% identification rate.

birds %>% group_by(Observer) %>% summarize(Avg_Birds_Spotted_Per_Day = n()/n_distinct(Date), 
    Percent_Unidentified = sum(is.na(Species))/n()) %>% arrange(desc(Avg_Birds_Spotted_Per_Day))

## # A tibble: 33 x 3
##    Observer         Avg_Birds_Spotted_Per_Day Percent_Unidentified
##    <chr>                                <dbl>                <dbl>
##  1 Kimberly Serno                       150.              0       
##  2 Elizabeth Oswald                     141.              0.0193  
##  3 Chris Hensley                        130.              0.0366  
##  4 Brian Swimelar                       122.              0       
##  5 Conor Higgins                        106.              0.0267  
##  6 Sasha Robinson                       106.              0.0383  
##  7 Ryan Trenkamp                         99.1             0       
##  8 Josh Schlicht                         98.9             0.0402  
##  9 Meta Griffin                          96.9             0.00268 
## 10 Justin Hill                           93.3             0.000643
## # … with 23 more rows
…
